Linear Regression Explained (Using R)
…
As I mentioned previously, we’re interested to see if there is a relationship between their heights and weights.

To this end, I set sail to Mars, and recorded the heights and weights of 100 Martian hippos.

This data is convinantly stored in a CSV file online so that you don’t have to go to Mars to follow along. You can access the data like so, where we store it in a variable df.

df <- read_csv("https://raw.githubusercontent.com/curtis-murray/Teaching/main/LinearRegression/hippos.csv")

The <- symbol is an assignment operator, which is just a fancy way of saying it’s the thing that lets you assign something to something. In this case, we’re assigning the variable name df with the data read in from the CSV file (read_csv) at the specified URL.

We can view df by calling it.

df

## # A tibble: 100 × 2
##    weight height
##     <dbl>  <dbl>
##  1 3920.  74.4  
##  2  385.   9.58 
##  3  -21.2  0.953
##  4 1178.  18.3  
##  5  833.  15.9  
##  6 2485.  45.4  
##  7 2854.  54.8  
##  8 3820.  72.9  
##  9  713.  12.5  
## 10 4360.  81.2  
## # … with 90 more rows
…
